{
    "replace":false,
    "values":[
        "minecraft:chainmail_chestplate",
        "minecraft:iron_chestplate",
        "minecraft:golden_chestplate",
        "minecraft:netherite_chestplate",
        "minecraft:diamond_chestplate",
        "minecraft:leather_chestplate"
    ]
}