{
    "replace":false,
    "values":[
        "minecraft:diamond_pickaxe",
        "minecraft:golden_pickaxe",
        "minecraft:wooden_pickaxe",
        "minecraft:iron_pickaxe",
        "minecraft:stone_pickaxe",
        "minecraft:netherite_pickaxe"
    ]
}